<svg xmlns="http://www.w3.org/2000/svg" viewBox="0 0 35.985 38.483">
  <defs>
    <style>
      .cls-1, .cls-2 {
        fill: none;
        stroke: #575962;
        stroke-width: 2px;
      }

      .cls-2 {
        stroke-linecap: round;
        stroke-linejoin: round;
        stroke-miterlimit: 10;
      }
    </style>
  </defs>
  <g id="Group_2386" data-name="Group 2386" transform="translate(1 1)">
    <path id="Path_1372" data-name="Path 1372" class="cls-1" d="M16.993,0c9.385,0,16.993,8.167,16.993,18.241S26.377,36.483,16.993,36.483,0,28.316,0,18.241,7.608,0,16.993,0Z" transform="translate(0 0)"/>
    <path id="Path_1371" data-name="Path 1371" class="cls-2" d="M27.664,15,18.024,26.641,12,21.467" transform="translate(-2.839 -3.309)"/>
  </g>
</svg>
