<svg xmlns="http://www.w3.org/2000/svg" viewBox="0 0 46 50">
  <defs>
    <style>
      .cls-1 {
        opacity: 1;
      }

      .cls-2 {
        fill: #fff;
      }
    </style>
  </defs>
  <g id="directory" class="cls-1">
    <g id="Group_1327" data-name="Group 1327" transform="translate(0)">
      <g id="Group_1326" data-name="Group 1326" transform="translate(0)">
        <path id="Path_1512" data-name="Path 1512" class="cls-2" d="M71.26,0h-41.7a2.123,2.123,0,0,0-2.151,2.088.768.768,0,0,0,1.535,0,.608.608,0,0,1,.616-.6h41.7a.608.608,0,0,1,.616.6V47.912a.608.608,0,0,1-.616.6H68.807a.745.745,0,1,0,0,1.49H71.26a2.123,2.123,0,0,0,2.151-2.088V2.088A2.123,2.123,0,0,0,71.26,0Z" transform="translate(-27.411 0)"/>
      </g>
    </g>
    <g id="Group_1329" data-name="Group 1329" transform="translate(0 4.828)">
      <g id="Group_1328" data-name="Group 1328" transform="translate(0)">
        <path id="Path_1513" data-name="Path 1513" class="cls-2" d="M64.343,93.117H29.562a.608.608,0,0,1-.616-.6V50.18a.768.768,0,0,0-1.535,0V92.519a2.123,2.123,0,0,0,2.151,2.088H64.343a.745.745,0,1,0,0-1.49Z" transform="translate(-27.411 -49.435)"/>
      </g>
    </g>
    <g id="Group_1331" data-name="Group 1331" transform="translate(6.535 8.428)">
      <g id="Group_1330" data-name="Group 1330" transform="translate(0)">
        <path id="Path_1514" data-name="Path 1514" class="cls-2" d="M99.374,86.3h-6.25a.757.757,0,0,0-.768.745v6.066a.757.757,0,0,0,.768.745h6.25a.757.757,0,0,0,.768-.745V87.049A.756.756,0,0,0,99.374,86.3Zm-.768,6.066H93.891V87.794h4.715Z" transform="translate(-92.356 -86.304)"/>
      </g>
    </g>
    <g id="Group_1333" data-name="Group 1333" transform="translate(6.535 20.402)">
      <g id="Group_1332" data-name="Group 1332" transform="translate(0)">
        <path id="Path_1515" data-name="Path 1515" class="cls-2" d="M99.374,208.918h-6.25a.757.757,0,0,0-.768.745v6.066a.757.757,0,0,0,.768.745h6.25a.757.757,0,0,0,.768-.745v-6.066A.756.756,0,0,0,99.374,208.918Zm-.768,6.066H93.891v-4.576h4.715Z" transform="translate(-92.356 -208.918)"/>
      </g>
    </g>
    <g id="Group_1335" data-name="Group 1335" transform="translate(6.535 32.376)">
      <g id="Group_1334" data-name="Group 1334" transform="translate(0)">
        <path id="Path_1516" data-name="Path 1516" class="cls-2" d="M99.374,331.533h-6.25a.757.757,0,0,0-.768.745v6.066a.757.757,0,0,0,.768.745h6.25a.757.757,0,0,0,.768-.745v-6.066A.756.756,0,0,0,99.374,331.533Zm-.768,6.066H93.891v-4.576h4.715Z" transform="translate(-92.356 -331.533)"/>
      </g>
    </g>
    <g id="Group_1337" data-name="Group 1337" transform="translate(17.442 8.428)">
      <g id="Group_1336" data-name="Group 1336" transform="translate(0)">
        <path id="Path_1517" data-name="Path 1517" class="cls-2" d="M222.666,86.3H201.528a.757.757,0,0,0-.768.745v6.066a.757.757,0,0,0,.768.745h21.138a.757.757,0,0,0,.768-.745V87.049A.756.756,0,0,0,222.666,86.3ZM202.3,92.37V87.794h19.6V92.37Z" transform="translate(-200.76 -86.304)"/>
      </g>
    </g>
    <g id="Group_1339" data-name="Group 1339" transform="translate(17.442 20.402)">
      <g id="Group_1338" data-name="Group 1338" transform="translate(0)">
        <path id="Path_1518" data-name="Path 1518" class="cls-2" d="M222.666,208.918H201.528a.756.756,0,0,0-.768.745v6.066a.756.756,0,0,0,.768.745h21.138a.756.756,0,0,0,.768-.745v-6.066A.756.756,0,0,0,222.666,208.918ZM202.3,214.984v-4.576h19.6v4.576Z" transform="translate(-200.76 -208.918)"/>
      </g>
    </g>
    <g id="Group_1341" data-name="Group 1341" transform="translate(17.442 32.376)">
      <g id="Group_1340" data-name="Group 1340" transform="translate(0)">
        <path id="Path_1519" data-name="Path 1519" class="cls-2" d="M222.666,331.533H201.528a.756.756,0,0,0-.768.745v6.066a.757.757,0,0,0,.768.745h21.138a.757.757,0,0,0,.768-.745v-6.066A.756.756,0,0,0,222.666,331.533ZM202.3,337.6v-4.576h19.6V337.6Z" transform="translate(-200.76 -331.533)"/>
      </g>
    </g>
  </g>
</svg>
