<svg id="house-outline" xmlns="http://www.w3.org/2000/svg" viewBox="0 0 46 43">
  <defs>
    <style>
      .cls-1 {
        fill: #fff;
      }
    </style>
  </defs>
  <g id="Group_1989" data-name="Group 1989" transform="translate(0 0)">
    <path id="Path_2138" data-name="Path 2138" class="cls-1" d="M115.744,300.251a1.3,1.3,0,0,0-1.326,1.319v18.018h-9.4v-7.357a1.306,1.306,0,0,0-1.278-1.294h-6.8a1.337,1.337,0,0,0-1.35,1.294v7.357H86.214v-17.42a1.3,1.3,0,0,0-2.6,0v18.739a1.285,1.285,0,0,0,1.277,1.273H96.942a1.285,1.285,0,0,0,1.277-1.273V313.55h4.194v7.358a1.3,1.3,0,0,0,1.326,1.273h12a1.284,1.284,0,0,0,1.277-1.273V301.57A1.292,1.292,0,0,0,115.744,300.251Z" transform="translate(-77.326 -279.18)"/>
    <path id="Path_2139" data-name="Path 2139" class="cls-1" d="M45.625,40.4,35.163,29.952V22.83a1.321,1.321,0,0,0-1.35-1.314,1.29,1.29,0,0,0-1.278,1.314v4.51l-8.63-8.631a1.271,1.271,0,0,0-.892-.409,1.313,1.313,0,0,0-.94.409L.4,40.255a1.229,1.229,0,0,0,0,1.82,1.247,1.247,0,0,0,1.832,0l20.779-20.61,20.731,20.8a1.285,1.285,0,0,0,.94.337,1.461,1.461,0,0,0,.94-.337A1.354,1.354,0,0,0,45.625,40.4Z" transform="translate(0 -18.3)"/>
  </g>
</svg>
