<svg xmlns="http://www.w3.org/2000/svg" viewBox="0 0 33.669 36.618">
  <defs>
    <style>
      .cls-1 {
        fill: #575962;
      }
    </style>
  </defs>
  <g id="Group_2380" data-name="Group 2380" transform="translate(0)">
    <g id="Group_1113" data-name="Group 1113" transform="translate(6.325 14.394)">
      <path id="Path_1441" data-name="Path 1441" class="cls-1" d="M100.185,201.261v3.591l-2.607-3.591h-1.39v7.063h1.784v-3.472l2.579,3.472h1.418v-7.063Z" transform="translate(-96.188 -201.261)"/>
    </g>
    <g id="Group_1115" data-name="Group 1115" transform="translate(13.222 14.394)">
      <path id="Path_1442" data-name="Path 1442" class="cls-1" d="M202.845,206.633v-1.114h2.36v-1.572h-2.36v-.995h2.762v-1.691h-4.546v7.063h4.628v-1.691Z" transform="translate(-201.062 -201.261)"/>
    </g>
    <g id="Group_1117" data-name="Group 1117" transform="translate(18.014 14.394)">
      <path id="Path_1443" data-name="Path 1443" class="cls-1" d="M281.891,201.261l-1.4,4.844-.466-1.472,1.07-3.372h-1.637l-.576,2.179-.567-2.179h-1.637l1.052,3.372-.448,1.472-1.409-4.844h-1.93l2.543,7.063h1.482l.915-2.527.924,2.527h1.482l2.543-7.063Z" transform="translate(-273.943 -201.261)"/>
    </g>
    <g id="Group_1119" data-name="Group 1119" transform="translate(0 0)">
      <path id="Path_1444" data-name="Path 1444" class="cls-1" d="M32.174,18.31l1.495-2.9-2.245-2.256.6-3.26L29.245,8.5l-.358-3.3-3.036-.389-1.279-3.02-3,.65L19.5,0,16.834,1.626,14.168,0,12.094,2.443l-3-.65L7.818,4.813,4.782,5.2,4.424,8.5,1.648,9.894l.6,3.26L0,15.41l1.495,2.9L0,21.21l2.245,2.256-.6,3.26,2.776,1.391.358,3.3,3.036.389L9.1,34.827l3-.65,2.074,2.442,2.666-1.625L19.5,36.619l2.074-2.442,3,.65,1.279-3.02,3.036-.389.358-3.3,2.776-1.391-.6-3.26,2.245-2.256Zm-.989,2.472-1.914,1.923.509,2.779L27.414,26.67l-.305,2.814-2.588.332-1.09,2.574-2.555-.554-1.768,2.082-2.273-1.386-2.273,1.386-1.768-2.082-2.555.554-1.09-2.574L6.56,29.484,6.255,26.67,3.888,25.484,4.4,22.705,2.483,20.782,3.757,18.31,2.483,15.838,4.4,13.915l-.509-2.779L6.255,9.95,6.56,7.136,9.148,6.8l1.09-2.574,2.555.554L14.561,2.7l2.273,1.386L19.107,2.7l1.768,2.082,2.555-.554L24.521,6.8l2.588.332.305,2.814,2.367,1.185-.509,2.779,1.914,1.923L29.911,18.31Z" transform="translate(0 -0.001)"/>
    </g>
  </g>
</svg>
