<svg xmlns="http://www.w3.org/2000/svg" viewBox="0 0 53.311 53.31">
  <defs>
    <style>
      .cls-1, .cls-4 {
        fill: none;
      }

      .cls-1 {
        stroke: #0077b5;
      }

      .cls-2 {
        fill: #0077b5;
        font-size: 26px;
        font-family: Montserrat-Medium, Montserrat;
        font-weight: 500;
        letter-spacing: -0.03em;
      }

      .cls-3 {
        stroke: none;
      }
    </style>
  </defs>
  <g id="Group_1410" data-name="Group 1410" transform="translate(-1550.535 -637.536)">
    <g id="Rectangle_1788" data-name="Rectangle 1788" class="cls-1" transform="translate(1550.536 637.536)">
      <rect class="cls-3" width="53.31" height="53.31" rx="3"/>
      <rect class="cls-4" x="0.5" y="0.5" width="52.31" height="52.31" rx="2.5"/>
    </g>
    <text id="fi" class="cls-2" transform="translate(1577.095 672.361)"><tspan x="-8.398" y="0">fi</tspan></text>
  </g>
</svg>
