<svg xmlns="http://www.w3.org/2000/svg" viewBox="0 0 46 50">
  <defs>
    <style>
      .cls-1 {
        opacity:  1;
      }

      .cls-2 {
        fill: #fff;
      }
    </style>
  </defs>
  <g id="human-resources" class="cls-1">
    <g id="Group_1313" data-name="Group 1313" transform="translate(39.727 42.187)">
      <g id="Group_1312" data-name="Group 1312">
        <path id="Path_1505" data-name="Path 1505" class="cls-2" d="M417.045,432a.979.979,0,1,0,1.046.977A1.013,1.013,0,0,0,417.045,432Z" transform="translate(-416 -432)"/>
      </g>
    </g>
    <g id="Group_1315" data-name="Group 1315" transform="translate(23 25.391)">
      <g id="Group_1314" data-name="Group 1314">
        <path id="Path_1506" data-name="Path 1506" class="cls-2" d="M257.045,260a.979.979,0,1,0,1.045.977A1.013,1.013,0,0,0,257.045,260Z" transform="translate(-256 -260)"/>
      </g>
    </g>
    <g id="Group_1317" data-name="Group 1317" transform="translate(6.273 33.203)">
      <g id="Group_1316" data-name="Group 1316">
        <path id="Path_1507" data-name="Path 1507" class="cls-2" d="M97.045,340a.979.979,0,1,0,1.045.977A1.013,1.013,0,0,0,97.045,340Z" transform="translate(-96 -340)"/>
      </g>
    </g>
    <g id="Group_1319" data-name="Group 1319" transform="translate(0 17.578)">
      <g id="Group_1318" data-name="Group 1318">
        <path id="Path_1508" data-name="Path 1508" class="cls-2" d="M80.955,195.625H70.5a1.013,1.013,0,0,0-1.045.977v13.867H65.273V180.977A1.013,1.013,0,0,0,64.227,180H53.773a1.013,1.013,0,0,0-1.045.977v29.492H48.545v-21.68a1.013,1.013,0,0,0-1.045-.977H37.045a1.013,1.013,0,0,0-1.045.977v22.656a1.013,1.013,0,0,0,1.045.977H80.955A1.013,1.013,0,0,0,82,211.445V196.6A1.013,1.013,0,0,0,80.955,195.625Zm-34.5,14.844H44.364v-9.961a1.048,1.048,0,0,0-2.091,0v9.961H38.091v-20.7h8.364Zm16.727,0H61.091V192.7a1.048,1.048,0,0,0-2.091,0v17.773H54.818V181.953h8.364Zm16.727,0H77.818v-.977a1.048,1.048,0,0,0-2.091,0v.977H71.545V197.578h8.364Z" transform="translate(-36 -180)"/>
      </g>
    </g>
    <g id="Group_1321" data-name="Group 1321" transform="translate(0 7.812)">
      <g id="Group_1320" data-name="Group 1320">
        <path id="Path_1509" data-name="Path 1509" class="cls-2" d="M45.305,86.592a3.759,3.759,0,0,0,1.149-2.686,4.192,4.192,0,0,0-8.364,0,3.759,3.759,0,0,0,1.149,2.686A5.817,5.817,0,0,0,36,91.719V92.7a1.013,1.013,0,0,0,1.045.977H47.5a1.013,1.013,0,0,0,1.045-.977v-.977A5.817,5.817,0,0,0,45.305,86.592Zm-3.032-4.639a1.958,1.958,0,1,1-2.091,1.953A2.028,2.028,0,0,1,42.273,81.953Zm-4.182,9.766a4.192,4.192,0,0,1,8.364,0Z" transform="translate(-36 -80)"/>
      </g>
    </g>
    <g id="Group_1323" data-name="Group 1323" transform="translate(16.727)">
      <g id="Group_1322" data-name="Group 1322">
        <path id="Path_1510" data-name="Path 1510" class="cls-2" d="M205.305,6.592a3.759,3.759,0,0,0,1.149-2.686,4.192,4.192,0,0,0-8.364,0,3.759,3.759,0,0,0,1.149,2.686A5.817,5.817,0,0,0,196,11.719V12.7a1.013,1.013,0,0,0,1.045.977H207.5a1.013,1.013,0,0,0,1.045-.977v-.977A5.817,5.817,0,0,0,205.305,6.592Zm-3.032-4.639a2.028,2.028,0,0,1,2.091,1.953,2.1,2.1,0,0,1-4.182,0A2.028,2.028,0,0,1,202.273,1.953Zm-4.182,9.766a4.192,4.192,0,0,1,8.364,0Z" transform="translate(-196)"/>
      </g>
    </g>
    <g id="Group_1325" data-name="Group 1325" transform="translate(33.455 15.625)">
      <g id="Group_1324" data-name="Group 1324">
        <path id="Path_1511" data-name="Path 1511" class="cls-2" d="M365.305,166.592a3.76,3.76,0,0,0,1.149-2.686,4.192,4.192,0,0,0-8.364,0,3.759,3.759,0,0,0,1.149,2.686,5.816,5.816,0,0,0-3.24,5.127v.977a1.013,1.013,0,0,0,1.045.977H367.5a1.013,1.013,0,0,0,1.045-.977v-.977A5.817,5.817,0,0,0,365.305,166.592Zm-3.032-4.639a1.958,1.958,0,1,1-2.091,1.953A2.028,2.028,0,0,1,362.273,161.953Zm-4.182,9.766a4.192,4.192,0,0,1,8.364,0Z" transform="translate(-356 -160)"/>
      </g>
    </g>
  </g>
</svg>
